0 info it worked if it ends with ok
1 verbose cli [ 'C:\\Program Files\\nodejs\\node.exe',
1 verbose cli   'C:\\Program Files\\nodejs\\node_modules\\npm\\bin\\npm-cli.js',
1 verbose cli   'install',
1 verbose cli   'sharp',
1 verbose cli   '--save' ]
2 info using npm@6.9.0
3 info using node@v10.16.0
4 verbose npm-session e7fd7ace275d34ee
5 silly install loadCurrentTree
6 silly install readLocalPackageData
7 http fetch GET 200 https://registry.npmjs.org/sharp 596ms
8 silly pacote range manifest for sharp@^0.22.1 fetched in 876ms
9 timing stage:loadCurrentTree Completed in 1778ms
10 silly install loadIdealTree
11 silly install cloneCurrentTreeToIdealTree
12 timing stage:loadIdealTree:cloneCurrentTree Completed in 4ms
13 silly install loadShrinkwrap
14 timing stage:loadIdealTree:loadShrinkwrap Completed in 318ms
15 silly install loadAllDepsIntoIdealTree
16 silly resolveWithNewModule sharp@0.22.1 checking installable status
17 silly removeObsoleteDep removing sharp@0.22.1 from the tree as its been replaced by a newer version or is no longer required
18 silly removeObsoleteDep removing color@3.1.2 from the tree as its been replaced by a newer version or is no longer required
19 silly removeObsoleteDep removing color-convert@1.9.3 from the tree as its been replaced by a newer version or is no longer required
20 silly removeObsoleteDep removing color-name@1.1.3 from the tree as its been replaced by a newer version or is no longer required
21 silly removeObsoleteDep removing color-string@1.5.3 from the tree as its been replaced by a newer version or is no longer required
22 silly removeObsoleteDep removing simple-swizzle@0.2.2 from the tree as its been replaced by a newer version or is no longer required
23 silly removeObsoleteDep removing is-arrayish@0.3.2 from the tree as its been replaced by a newer version or is no longer required
24 silly removeObsoleteDep removing fs-copy-file-sync@1.1.1 from the tree as its been replaced by a newer version or is no longer required
25 silly removeObsoleteDep removing nan@2.14.0 from the tree as its been replaced by a newer version or is no longer required
26 silly removeObsoleteDep removing prebuild-install@5.3.0 from the tree as its been replaced by a newer version or is no longer required
27 silly removeObsoleteDep removing detect-libc@1.0.3 from the tree as its been replaced by a newer version or is no longer required
28 silly removeObsoleteDep removing expand-template@2.0.3 from the tree as its been replaced by a newer version or is no longer required
29 silly removeObsoleteDep removing github-from-package@0.0.0 from the tree as its been replaced by a newer version or is no longer required
30 silly removeObsoleteDep removing minimist@1.2.0 from the tree as its been replaced by a newer version or is no longer required
31 silly removeObsoleteDep removing napi-build-utils@1.0.1 from the tree as its been replaced by a newer version or is no longer required
32 silly removeObsoleteDep removing node-abi@2.9.0 from the tree as its been replaced by a newer version or is no longer required
33 silly removeObsoleteDep removing semver@5.7.0 from the tree as its been replaced by a newer version or is no longer required
34 silly removeObsoleteDep removing noop-logger@0.1.1 from the tree as its been replaced by a newer version or is no longer required
35 silly removeObsoleteDep removing npmlog@4.1.2 from the tree as its been replaced by a newer version or is no longer required
36 silly removeObsoleteDep removing are-we-there-yet@1.1.5 from the tree as its been replaced by a newer version or is no longer required
37 silly removeObsoleteDep removing delegates@1.0.0 from the tree as its been replaced by a newer version or is no longer required
38 silly removeObsoleteDep removing readable-stream@2.3.6 from the tree as its been replaced by a newer version or is no longer required
39 silly removeObsoleteDep removing isarray@1.0.0 from the tree as its been replaced by a newer version or is no longer required
40 silly removeObsoleteDep removing string_decoder@1.1.1 from the tree as its been replaced by a newer version or is no longer required
41 silly removeObsoleteDep removing console-control-strings@1.1.0 from the tree as its been replaced by a newer version or is no longer required
42 silly removeObsoleteDep removing gauge@2.7.4 from the tree as its been replaced by a newer version or is no longer required
43 silly removeObsoleteDep removing aproba@1.2.0 from the tree as its been replaced by a newer version or is no longer required
44 silly removeObsoleteDep removing has-unicode@2.0.1 from the tree as its been replaced by a newer version or is no longer required
45 silly removeObsoleteDep removing signal-exit@3.0.2 from the tree as its been replaced by a newer version or is no longer required
46 silly removeObsoleteDep removing string-width@1.0.2 from the tree as its been replaced by a newer version or is no longer required
47 silly removeObsoleteDep removing code-point-at@1.1.0 from the tree as its been replaced by a newer version or is no longer required
48 silly removeObsoleteDep removing is-fullwidth-code-point@1.0.0 from the tree as its been replaced by a newer version or is no longer required
49 silly removeObsoleteDep removing number-is-nan@1.0.1 from the tree as its been replaced by a newer version or is no longer required
50 silly removeObsoleteDep removing strip-ansi@3.0.1 from the tree as its been replaced by a newer version or is no longer required
51 silly removeObsoleteDep removing ansi-regex@2.1.1 from the tree as its been replaced by a newer version or is no longer required
52 silly removeObsoleteDep removing wide-align@1.1.3 from the tree as its been replaced by a newer version or is no longer required
53 silly removeObsoleteDep removing set-blocking@2.0.0 from the tree as its been replaced by a newer version or is no longer required
54 silly removeObsoleteDep removing os-homedir@1.0.2 from the tree as its been replaced by a newer version or is no longer required
55 silly removeObsoleteDep removing pump@2.0.1 from the tree as its been replaced by a newer version or is no longer required
56 silly removeObsoleteDep removing end-of-stream@1.4.1 from the tree as its been replaced by a newer version or is no longer required
57 silly removeObsoleteDep removing rc@1.2.8 from the tree as its been replaced by a newer version or is no longer required
58 silly removeObsoleteDep removing deep-extend@0.6.0 from the tree as its been replaced by a newer version or is no longer required
59 silly removeObsoleteDep removing ini@1.3.5 from the tree as its been replaced by a newer version or is no longer required
60 silly removeObsoleteDep removing minimist@1.2.0 from the tree as its been replaced by a newer version or is no longer required
61 silly removeObsoleteDep removing strip-json-comments@2.0.1 from the tree as its been replaced by a newer version or is no longer required
62 silly removeObsoleteDep removing simple-get@2.8.1 from the tree as its been replaced by a newer version or is no longer required
63 silly removeObsoleteDep removing tar-fs@1.16.3 from the tree as its been replaced by a newer version or is no longer required
64 silly removeObsoleteDep removing pump@1.0.3 from the tree as its been replaced by a newer version or is no longer required
65 silly removeObsoleteDep removing tar-stream@1.6.2 from the tree as its been replaced by a newer version or is no longer required
66 silly removeObsoleteDep removing bl@1.2.2 from the tree as its been replaced by a newer version or is no longer required
67 silly removeObsoleteDep removing readable-stream@2.3.6 from the tree as its been replaced by a newer version or is no longer required
68 silly removeObsoleteDep removing isarray@1.0.0 from the tree as its been replaced by a newer version or is no longer required
69 silly removeObsoleteDep removing string_decoder@1.1.1 from the tree as its been replaced by a newer version or is no longer required
70 silly removeObsoleteDep removing buffer-alloc@1.2.0 from the tree as its been replaced by a newer version or is no longer required
71 silly removeObsoleteDep removing buffer-alloc-unsafe@1.1.0 from the tree as its been replaced by a newer version or is no longer required
72 silly removeObsoleteDep removing buffer-fill@1.0.0 from the tree as its been replaced by a newer version or is no longer required
73 silly removeObsoleteDep removing fs-constants@1.0.0 from the tree as its been replaced by a newer version or is no longer required
74 silly removeObsoleteDep removing readable-stream@2.3.6 from the tree as its been replaced by a newer version or is no longer required
75 silly removeObsoleteDep removing isarray@1.0.0 from the tree as its been replaced by a newer version or is no longer required
76 silly removeObsoleteDep removing string_decoder@1.1.1 from the tree as its been replaced by a newer version or is no longer required
77 silly removeObsoleteDep removing to-buffer@1.1.1 from the tree as its been replaced by a newer version or is no longer required
78 silly removeObsoleteDep removing which-pm-runs@1.0.0 from the tree as its been replaced by a newer version or is no longer required
79 silly removeObsoleteDep removing semver@6.2.0 from the tree as its been replaced by a newer version or is no longer required
80 silly removeObsoleteDep removing simple-get@3.0.3 from the tree as its been replaced by a newer version or is no longer required
81 silly removeObsoleteDep removing decompress-response@3.3.0 from the tree as its been replaced by a newer version or is no longer required
82 silly removeObsoleteDep removing mimic-response@1.0.1 from the tree as its been replaced by a newer version or is no longer required
83 silly removeObsoleteDep removing once@1.4.0 from the tree as its been replaced by a newer version or is no longer required
84 silly removeObsoleteDep removing wrappy@1.0.2 from the tree as its been replaced by a newer version or is no longer required
85 silly removeObsoleteDep removing simple-concat@1.0.0 from the tree as its been replaced by a newer version or is no longer required
86 silly removeObsoleteDep removing tar@4.4.10 from the tree as its been replaced by a newer version or is no longer required
87 silly removeObsoleteDep removing chownr@1.1.2 from the tree as its been replaced by a newer version or is no longer required
88 silly removeObsoleteDep removing fs-minipass@1.2.6 from the tree as its been replaced by a newer version or is no longer required
89 silly removeObsoleteDep removing minipass@2.3.5 from the tree as its been replaced by a newer version or is no longer required
90 silly removeObsoleteDep removing yallist@3.0.3 from the tree as its been replaced by a newer version or is no longer required
91 silly removeObsoleteDep removing minizlib@1.2.1 from the tree as its been replaced by a newer version or is no longer required
92 silly removeObsoleteDep removing tunnel-agent@0.6.0 from the tree as its been replaced by a newer version or is no longer required
93 http fetch GET 200 https://registry.npmjs.org/color 151ms
94 silly pacote range manifest for color@^3.1.1 fetched in 157ms
95 silly resolveWithNewModule color@3.1.2 checking installable status
96 http fetch GET 200 https://registry.npmjs.org/nan 177ms
97 silly pacote range manifest for nan@^2.13.2 fetched in 184ms
98 silly resolveWithNewModule nan@2.14.0 checking installable status
99 http fetch GET 200 https://registry.npmjs.org/tunnel-agent 229ms
100 http fetch GET 200 https://registry.npmjs.org/semver 232ms
101 silly pacote range manifest for tunnel-agent@^0.6.0 fetched in 239ms
102 silly resolveWithNewModule tunnel-agent@0.6.0 checking installable status
103 silly pacote range manifest for semver@^6.0.0 fetched in 267ms
104 silly resolveWithNewModule semver@6.2.0 checking installable status
105 http fetch GET 200 https://registry.npmjs.org/fs-copy-file-sync 277ms
106 silly pacote range manifest for fs-copy-file-sync@^1.1.1 fetched in 283ms
107 silly resolveWithNewModule fs-copy-file-sync@1.1.1 checking installable status
108 http fetch GET 200 https://registry.npmjs.org/prebuild-install 464ms
109 http fetch GET 200 https://registry.npmjs.org/detect-libc 472ms
110 silly pacote range manifest for prebuild-install@^5.3.0 fetched in 472ms
111 silly resolveWithNewModule prebuild-install@5.3.0 checking installable status
112 silly pacote range manifest for detect-libc@^1.0.3 fetched in 480ms
113 silly resolveWithNewModule detect-libc@1.0.3 checking installable status
114 http fetch GET 200 https://registry.npmjs.org/tar 3343ms
115 silly pacote range manifest for tar@^4.4.8 fetched in 3352ms
116 silly resolveWithNewModule tar@4.4.10 checking installable status
117 http fetch GET 200 https://registry.npmjs.org/npmlog 7420ms
118 http fetch GET 200 https://registry.npmjs.org/npmlog/-/npmlog-4.1.2.tgz 130ms
119 silly pacote range manifest for npmlog@^4.1.2 fetched in 7561ms
120 silly resolveWithNewModule npmlog@4.1.2 checking installable status
121 http fetch GET 200 https://registry.npmjs.org/simple-get 7973ms
122 silly pacote range manifest for simple-get@^3.0.3 fetched in 7980ms
123 silly resolveWithNewModule simple-get@3.0.3 checking installable status
124 http fetch GET 200 https://registry.npmjs.org/color-string 83ms
125 silly pacote range manifest for color-string@^1.5.2 fetched in 91ms
126 silly resolveWithNewModule color-string@1.5.3 checking installable status
127 http fetch GET 200 https://registry.npmjs.org/color-convert 331ms
128 silly pacote range manifest for color-convert@^1.9.1 fetched in 338ms
129 silly resolveWithNewModule color-convert@1.9.3 checking installable status
130 http fetch GET 200 https://registry.npmjs.org/color-name 72ms
131 http fetch GET 200 https://registry.npmjs.org/color-name/-/color-name-1.1.3.tgz 69ms
132 silly pacote version manifest for color-name@1.1.3 fetched in 151ms
133 silly resolveWithNewModule color-name@1.1.3 checking installable status
134 http fetch GET 200 https://registry.npmjs.org/simple-swizzle 81ms
135 silly pacote range manifest for simple-swizzle@^0.2.2 fetched in 87ms
136 silly resolveWithNewModule simple-swizzle@0.2.2 checking installable status
137 http fetch GET 200 https://registry.npmjs.org/is-arrayish 77ms
138 silly pacote range manifest for is-arrayish@^0.3.1 fetched in 83ms
139 silly resolveWithNewModule is-arrayish@0.3.2 checking installable status
140 http fetch GET 200 https://registry.npmjs.org/console-control-strings 70ms
141 http fetch GET 200 https://registry.npmjs.org/gauge 71ms
142 http fetch GET 200 https://registry.npmjs.org/set-blocking 72ms
143 silly pacote range manifest for console-control-strings@~1.1.0 fetched in 79ms
144 silly resolveWithNewModule console-control-strings@1.1.0 checking installable status
145 silly pacote range manifest for gauge@~2.7.3 fetched in 81ms
146 silly resolveWithNewModule gauge@2.7.4 checking installable status
147 silly pacote range manifest for set-blocking@~2.0.0 fetched in 82ms
148 silly resolveWithNewModule set-blocking@2.0.0 checking installable status
149 http fetch GET 200 https://registry.npmjs.org/are-we-there-yet 3113ms
150 silly pacote range manifest for are-we-there-yet@~1.1.2 fetched in 3119ms
151 silly resolveWithNewModule are-we-there-yet@1.1.5 checking installable status
152 http fetch GET 200 https://registry.npmjs.org/readable-stream 242ms
153 silly pacote range manifest for readable-stream@^2.0.6 fetched in 253ms
154 silly resolveWithNewModule readable-stream@2.3.6 checking installable status
155 http fetch GET 200 https://registry.npmjs.org/delegates 329ms
156 silly pacote range manifest for delegates@^1.0.0 fetched in 336ms
157 silly resolveWithNewModule delegates@1.0.0 checking installable status
158 http fetch GET 200 https://registry.npmjs.org/string_decoder 64ms
159 silly pacote range manifest for string_decoder@~1.1.1 fetched in 71ms
160 silly resolveWithNewModule string_decoder@1.1.1 checking installable status
161 http fetch GET 200 https://registry.npmjs.org/isarray 423ms
162 http fetch GET 200 https://registry.npmjs.org/isarray/-/isarray-1.0.0.tgz 508ms
163 silly pacote range manifest for isarray@~1.0.0 fetched in 939ms
164 silly resolveWithNewModule isarray@1.0.0 checking installable status
165 http fetch GET 200 https://registry.npmjs.org/aproba 82ms
166 http fetch GET 200 https://registry.npmjs.org/string-width 83ms
167 http fetch GET 200 https://registry.npmjs.org/strip-ansi 78ms
168 http fetch GET 200 https://registry.npmjs.org/wide-align 77ms
169 silly pacote range manifest for wide-align@^1.1.0 fetched in 89ms
170 silly resolveWithNewModule wide-align@1.1.3 checking installable status
171 http fetch GET 200 https://registry.npmjs.org/strip-ansi/-/strip-ansi-3.0.1.tgz 71ms
172 silly pacote range manifest for strip-ansi@^3.0.1 fetched in 162ms
173 silly resolveWithNewModule strip-ansi@3.0.1 checking installable status
174 http fetch GET 200 https://registry.npmjs.org/signal-exit 474ms
175 silly pacote range manifest for signal-exit@^3.0.0 fetched in 482ms
176 silly resolveWithNewModule signal-exit@3.0.2 checking installable status
177 http fetch GET 200 https://registry.npmjs.org/aproba/-/aproba-1.2.0.tgz 510ms
178 silly pacote range manifest for aproba@^1.0.3 fetched in 603ms
179 silly resolveWithNewModule aproba@1.2.0 checking installable status
180 http fetch GET 200 https://registry.npmjs.org/string-width/-/string-width-1.0.2.tgz 672ms
181 silly pacote range manifest for string-width@^1.0.1 fetched in 765ms
182 silly resolveWithNewModule string-width@1.0.2 checking installable status
183 http fetch GET 200 https://registry.npmjs.org/has-unicode 3256ms
184 silly pacote range manifest for has-unicode@^2.0.0 fetched in 3286ms
185 silly resolveWithNewModule has-unicode@2.0.1 checking installable status
186 http fetch GET 200 https://registry.npmjs.org/is-fullwidth-code-point 426ms
187 http fetch GET 200 https://registry.npmjs.org/code-point-at 434ms
188 silly pacote range manifest for code-point-at@^1.0.0 fetched in 442ms
189 silly resolveWithNewModule code-point-at@1.1.0 checking installable status
190 http fetch GET 200 https://registry.npmjs.org/is-fullwidth-code-point/-/is-fullwidth-code-point-1.0.0.tgz 80ms
191 silly pacote range manifest for is-fullwidth-code-point@^1.0.0 fetched in 512ms
192 silly resolveWithNewModule is-fullwidth-code-point@1.0.0 checking installable status
193 http fetch GET 200 https://registry.npmjs.org/number-is-nan 59ms
194 silly pacote range manifest for number-is-nan@^1.0.0 fetched in 64ms
195 silly resolveWithNewModule number-is-nan@1.0.1 checking installable status
196 http fetch GET 200 https://registry.npmjs.org/ansi-regex 66ms
197 http fetch GET 200 https://registry.npmjs.org/ansi-regex/-/ansi-regex-2.1.1.tgz 63ms
198 silly pacote range manifest for ansi-regex@^2.0.0 fetched in 136ms
199 silly resolveWithNewModule ansi-regex@2.1.1 checking installable status
200 silly pacote range manifest for simple-get@^2.7.0 fetched in 15ms
201 silly resolveWithNewModule simple-get@2.8.1 checking installable status
202 http fetch GET 200 https://registry.npmjs.org/noop-logger 112ms
203 http fetch GET 200 https://registry.npmjs.org/os-homedir 114ms
204 http fetch GET 200 https://registry.npmjs.org/expand-template 116ms
205 http fetch GET 200 https://registry.npmjs.org/tar-fs 102ms
206 http fetch GET 200 https://registry.npmjs.org/rc 123ms
207 silly pacote range manifest for noop-logger@^0.1.1 fetched in 134ms
208 silly resolveWithNewModule noop-logger@0.1.1 checking installable status
209 silly pacote range manifest for expand-template@^2.0.3 fetched in 140ms
210 silly resolveWithNewModule expand-template@2.0.3 checking installable status
211 silly pacote range manifest for tar-fs@^1.13.0 fetched in 121ms
212 silly resolveWithNewModule tar-fs@1.16.3 checking installable status
213 silly pacote range manifest for rc@^1.2.7 fetched in 138ms
214 silly resolveWithNewModule rc@1.2.8 checking installable status
215 http fetch GET 200 https://registry.npmjs.org/which-pm-runs 73ms
216 silly pacote range manifest for which-pm-runs@^1.0.0 fetched in 79ms
217 silly resolveWithNewModule which-pm-runs@1.0.0 checking installable status
218 http fetch GET 200 https://registry.npmjs.org/node-abi 516ms
219 http fetch GET 200 https://registry.npmjs.org/github-from-package 521ms
220 silly pacote range manifest for node-abi@^2.7.0 fetched in 689ms
221 silly resolveWithNewModule node-abi@2.9.0 checking installable status
222 http fetch GET 200 https://registry.npmjs.org/os-homedir/-/os-homedir-1.0.2.tgz 602ms
223 silly pacote version manifest for github-from-package@0.0.0 fetched in 721ms
224 silly resolveWithNewModule github-from-package@0.0.0 checking installable status
225 silly pacote range manifest for os-homedir@^1.0.1 fetched in 726ms
226 silly resolveWithNewModule os-homedir@1.0.2 checking installable status
227 http fetch GET 200 https://registry.npmjs.org/minimist 1262ms
228 http fetch GET 200 https://registry.npmjs.org/minimist/-/minimist-1.2.0.tgz 80ms
229 silly pacote range manifest for minimist@^1.2.0 fetched in 1351ms
230 silly resolveWithNewModule minimist@1.2.0 checking installable status
231 http fetch GET 200 https://registry.npmjs.org/napi-build-utils 2458ms
232 silly pacote range manifest for napi-build-utils@^1.0.1 fetched in 2474ms
233 silly resolveWithNewModule napi-build-utils@1.0.1 checking installable status
234 http fetch GET 200 https://registry.npmjs.org/pump 2950ms
235 http fetch GET 200 https://registry.npmjs.org/pump/-/pump-2.0.1.tgz 79ms
236 silly pacote range manifest for pump@^2.0.1 fetched in 3038ms
237 silly resolveWithNewModule pump@2.0.1 checking installable status
238 silly pacote range manifest for semver@^5.4.1 fetched in 7ms
239 silly resolveWithNewModule semver@5.7.0 checking installable status
240 http fetch GET 200 https://registry.npmjs.org/once 61ms
241 silly pacote range manifest for once@^1.3.1 fetched in 69ms
242 silly resolveWithNewModule once@1.4.0 checking installable status
243 http fetch GET 200 https://registry.npmjs.org/end-of-stream 2320ms
244 silly pacote range manifest for end-of-stream@^1.1.0 fetched in 2326ms
245 silly resolveWithNewModule end-of-stream@1.4.1 checking installable status
246 http fetch GET 200 https://registry.npmjs.org/wrappy 99ms
247 silly pacote range manifest for wrappy@1 fetched in 106ms
248 silly resolveWithNewModule wrappy@1.0.2 checking installable status
249 silly pacote range manifest for minimist@^1.2.0 fetched in 12ms
250 silly resolveWithNewModule minimist@1.2.0 checking installable status
251 http fetch GET 200 https://registry.npmjs.org/ini 79ms
252 http fetch GET 200 https://registry.npmjs.org/strip-json-comments 82ms
253 http fetch GET 200 https://registry.npmjs.org/ini/-/ini-1.3.5.tgz 64ms
254 silly pacote range manifest for ini@~1.3.0 fetched in 152ms
255 silly resolveWithNewModule ini@1.3.5 checking installable status
256 http fetch GET 200 https://registry.npmjs.org/strip-json-comments/-/strip-json-comments-2.0.1.tgz 88ms
257 silly pacote range manifest for strip-json-comments@~2.0.1 fetched in 178ms
258 silly resolveWithNewModule strip-json-comments@2.0.1 checking installable status
259 http fetch GET 200 https://registry.npmjs.org/deep-extend 330ms
260 silly pacote range manifest for deep-extend@^0.6.0 fetched in 337ms
261 silly resolveWithNewModule deep-extend@0.6.0 checking installable status
262 http fetch GET 200 https://registry.npmjs.org/simple-concat 59ms
263 silly pacote range manifest for simple-concat@^1.0.0 fetched in 65ms
264 silly resolveWithNewModule simple-concat@1.0.0 checking installable status
265 http fetch GET 200 https://registry.npmjs.org/decompress-response 2406ms
266 http fetch GET 200 https://registry.npmjs.org/decompress-response/-/decompress-response-3.3.0.tgz 158ms
267 silly pacote range manifest for decompress-response@^3.3.0 fetched in 2572ms
268 silly resolveWithNewModule decompress-response@3.3.0 checking installable status
269 http fetch GET 200 https://registry.npmjs.org/mimic-response 88ms
270 silly pacote range manifest for mimic-response@^1.0.0 fetched in 95ms
271 silly resolveWithNewModule mimic-response@1.0.1 checking installable status
272 http fetch GET 200 https://registry.npmjs.org/pump/-/pump-1.0.3.tgz 54ms
273 silly pacote range manifest for pump@^1.0.0 fetched in 61ms
274 silly resolveWithNewModule pump@1.0.3 checking installable status
275 http fetch GET 200 https://registry.npmjs.org/chownr 334ms
276 silly pacote range manifest for chownr@^1.0.1 fetched in 342ms
277 silly resolveWithNewModule chownr@1.1.2 checking installable status
278 http fetch GET 200 https://registry.npmjs.org/tar-stream 363ms
279 silly pacote range manifest for tar-stream@^1.1.2 fetched in 370ms
280 silly resolveWithNewModule tar-stream@1.6.2 checking installable status
281 silly pacote range manifest for readable-stream@^2.3.0 fetched in 13ms
282 silly resolveWithNewModule readable-stream@2.3.6 checking installable status
283 http fetch GET 200 https://registry.npmjs.org/buffer-alloc 74ms
284 http fetch GET 200 https://registry.npmjs.org/to-buffer 75ms
285 http fetch GET 200 https://registry.npmjs.org/fs-constants 79ms
286 silly pacote range manifest for to-buffer@^1.1.1 fetched in 86ms
287 silly resolveWithNewModule to-buffer@1.1.1 checking installable status
288 silly pacote range manifest for fs-constants@^1.0.0 fetched in 88ms
289 silly resolveWithNewModule fs-constants@1.0.0 checking installable status
290 silly pacote range manifest for buffer-alloc@^1.2.0 fetched in 90ms
291 silly resolveWithNewModule buffer-alloc@1.2.0 checking installable status
292 http fetch GET 200 https://registry.npmjs.org/bl 360ms
293 silly pacote range manifest for bl@^1.0.0 fetched in 371ms
294 silly resolveWithNewModule bl@1.2.2 checking installable status
295 silly pacote range manifest for readable-stream@^2.3.5 fetched in 3ms
296 silly resolveWithNewModule readable-stream@2.3.6 checking installable status
297 silly pacote range manifest for isarray@~1.0.0 fetched in 7ms
298 silly resolveWithNewModule isarray@1.0.0 checking installable status
299 silly pacote range manifest for string_decoder@~1.1.1 fetched in 8ms
300 silly resolveWithNewModule string_decoder@1.1.1 checking installable status
301 http fetch GET 200 https://registry.npmjs.org/buffer-alloc-unsafe 70ms
302 http fetch GET 200 https://registry.npmjs.org/buffer-fill 91ms
303 silly pacote range manifest for buffer-fill@^1.0.0 fetched in 96ms
304 silly resolveWithNewModule buffer-fill@1.0.0 checking installable status
305 http fetch GET 200 https://registry.npmjs.org/buffer-alloc-unsafe/-/buffer-alloc-unsafe-1.1.0.tgz 64ms
306 silly pacote range manifest for buffer-alloc-unsafe@^1.1.0 fetched in 140ms
307 silly resolveWithNewModule buffer-alloc-unsafe@1.1.0 checking installable status
308 silly pacote range manifest for isarray@~1.0.0 fetched in 2ms
309 silly resolveWithNewModule isarray@1.0.0 checking installable status
310 silly pacote range manifest for string_decoder@~1.1.1 fetched in 2ms
311 silly resolveWithNewModule string_decoder@1.1.1 checking installable status
312 http fetch GET 200 https://registry.npmjs.org/yallist 80ms
313 silly pacote range manifest for yallist@^3.0.3 fetched in 87ms
314 silly resolveWithNewModule yallist@3.0.3 checking installable status
315 http fetch GET 200 https://registry.npmjs.org/fs-minipass 384ms
316 silly pacote range manifest for fs-minipass@^1.2.5 fetched in 395ms
317 silly resolveWithNewModule fs-minipass@1.2.6 checking installable status
318 http fetch GET 200 https://registry.npmjs.org/minizlib 640ms
319 http fetch GET 200 https://registry.npmjs.org/minipass 642ms
320 silly pacote range manifest for minipass@^2.3.5 fetched in 650ms
321 silly resolveWithNewModule minipass@2.3.5 checking installable status
322 silly pacote range manifest for minizlib@^1.2.1 fetched in 649ms
323 silly resolveWithNewModule minizlib@1.2.1 checking installable status
324 timing stage:loadIdealTree:loadAllDepsIntoIdealTree Completed in 27312ms
325 timing stage:loadIdealTree Completed in 27715ms
326 silly currentTree node-test@1.0.0
326 silly currentTree +-- accepts@1.3.7
326 silly currentTree +-- ansi-regex@2.1.1
326 silly currentTree +-- append-field@1.0.0
326 silly currentTree +-- aproba@1.2.0
326 silly currentTree +-- are-we-there-yet@1.1.5
326 silly currentTree | +-- isarray@1.0.0
326 silly currentTree | +-- readable-stream@2.3.6
326 silly currentTree | `-- string_decoder@1.1.1
326 silly currentTree +-- array-flatten@1.1.1
326 silly currentTree +-- bl@1.2.2
326 silly currentTree | +-- isarray@1.0.0
326 silly currentTree | +-- readable-stream@2.3.6
326 silly currentTree | `-- string_decoder@1.1.1
326 silly currentTree +-- body-parser@1.19.0
326 silly currentTree +-- buffer-alloc-unsafe@1.1.0
326 silly currentTree +-- buffer-alloc@1.2.0
326 silly currentTree +-- buffer-fill@1.0.0
326 silly currentTree +-- buffer-from@1.1.1
326 silly currentTree +-- busboy@0.2.14
326 silly currentTree +-- bytes@3.1.0
326 silly currentTree +-- chownr@1.1.2
326 silly currentTree +-- code-point-at@1.1.0
326 silly currentTree +-- color-convert@1.9.3
326 silly currentTree +-- color-name@1.1.3
326 silly currentTree +-- color-string@1.5.3
326 silly currentTree +-- color@3.1.2
326 silly currentTree +-- concat-stream@1.6.2
326 silly currentTree | +-- isarray@1.0.0
326 silly currentTree | +-- readable-stream@2.3.6
326 silly currentTree | `-- string_decoder@1.1.1
326 silly currentTree +-- console-control-strings@1.1.0
326 silly currentTree +-- content-disposition@0.5.3
326 silly currentTree +-- content-type@1.0.4
326 silly currentTree +-- cookie-signature@1.0.6
326 silly currentTree +-- cookie@0.4.0
326 silly currentTree +-- core-util-is@1.0.2
326 silly currentTree +-- debug@2.6.9
326 silly currentTree +-- decompress-response@3.3.0
326 silly currentTree +-- deep-extend@0.6.0
326 silly currentTree +-- delegates@1.0.0
326 silly currentTree +-- depd@1.1.2
326 silly currentTree +-- destroy@1.0.4
326 silly currentTree +-- detect-libc@1.0.3
326 silly currentTree +-- dicer@0.2.5
326 silly currentTree +-- ee-first@1.1.1
326 silly currentTree +-- ejs@2.6.2
326 silly currentTree +-- encodeurl@1.0.2
326 silly currentTree +-- end-of-stream@1.4.1
326 silly currentTree +-- escape-html@1.0.3
326 silly currentTree +-- etag@1.8.1
326 silly currentTree +-- expand-template@2.0.3
326 silly currentTree +-- express@4.17.1
326 silly currentTree +-- finalhandler@1.1.2
326 silly currentTree +-- forwarded@0.1.2
326 silly currentTree +-- fresh@0.5.2
326 silly currentTree +-- fs-constants@1.0.0
326 silly currentTree +-- fs-copy-file-sync@1.1.1
326 silly currentTree +-- fs-minipass@1.2.6
326 silly currentTree +-- gauge@2.7.4
326 silly currentTree +-- github-from-package@0.0.0
326 silly currentTree +-- has-unicode@2.0.1
326 silly currentTree +-- http-errors@1.7.2
326 silly currentTree +-- iconv-lite@0.4.24
326 silly currentTree +-- inherits@2.0.3
326 silly currentTree +-- ini@1.3.5
326 silly currentTree +-- ipaddr.js@1.9.0
326 silly currentTree +-- is-arrayish@0.3.2
326 silly currentTree +-- is-fullwidth-code-point@1.0.0
326 silly currentTree +-- isarray@0.0.1
326 silly currentTree +-- media-typer@0.3.0
326 silly currentTree +-- merge-descriptors@1.0.1
326 silly currentTree +-- methods@1.1.2
326 silly currentTree +-- mime-db@1.40.0
326 silly currentTree +-- mime-types@2.1.24
326 silly currentTree +-- mime@1.6.0
326 silly currentTree +-- mimic-response@1.0.1
326 silly currentTree +-- minimist@0.0.8
326 silly currentTree +-- minipass@2.3.5
326 silly currentTree +-- minizlib@1.2.1
326 silly currentTree +-- mkdirp@0.5.1
326 silly currentTree +-- ms@2.0.0
326 silly currentTree +-- multer@1.4.2
326 silly currentTree +-- nan@2.14.0
326 silly currentTree +-- napi-build-utils@1.0.1
326 silly currentTree +-- negotiator@0.6.2
326 silly currentTree +-- node-abi@2.9.0
326 silly currentTree | `-- semver@5.7.0
326 silly currentTree +-- noop-logger@0.1.1
326 silly currentTree +-- npmlog@4.1.2
326 silly currentTree +-- number-is-nan@1.0.1
326 silly currentTree +-- object-assign@4.1.1
326 silly currentTree +-- on-finished@2.3.0
326 silly currentTree +-- once@1.4.0
326 silly currentTree +-- os-homedir@1.0.2
326 silly currentTree +-- parseurl@1.3.3
326 silly currentTree +-- path-to-regexp@0.1.7
326 silly currentTree +-- prebuild-install@5.3.0
326 silly currentTree | +-- minimist@1.2.0
326 silly currentTree | `-- simple-get@2.8.1
326 silly currentTree +-- process-nextick-args@2.0.1
326 silly currentTree +-- proxy-addr@2.0.5
326 silly currentTree +-- pump@2.0.1
326 silly currentTree +-- qs@6.7.0
326 silly currentTree +-- range-parser@1.2.1
326 silly currentTree +-- raw-body@2.4.0
326 silly currentTree +-- rc@1.2.8
326 silly currentTree | `-- minimist@1.2.0
326 silly currentTree +-- readable-stream@1.1.14
326 silly currentTree +-- safe-buffer@5.1.2
326 silly currentTree +-- safer-buffer@2.1.2
326 silly currentTree +-- semver@6.2.0
326 silly currentTree +-- send@0.17.1
326 silly currentTree | `-- ms@2.1.1
326 silly currentTree +-- serve-static@1.14.1
326 silly currentTree +-- set-blocking@2.0.0
326 silly currentTree +-- setprototypeof@1.1.1
326 silly currentTree +-- sharp@0.22.1
326 silly currentTree +-- signal-exit@3.0.2
326 silly currentTree +-- simple-concat@1.0.0
326 silly currentTree +-- simple-get@3.0.3
326 silly currentTree +-- simple-swizzle@0.2.2
326 silly currentTree +-- statuses@1.5.0
326 silly currentTree +-- streamsearch@0.1.2
326 silly currentTree +-- string_decoder@0.10.31
326 silly currentTree +-- string-width@1.0.2
326 silly currentTree +-- strip-ansi@3.0.1
326 silly currentTree +-- strip-json-comments@2.0.1
326 silly currentTree +-- tar-fs@1.16.3
326 silly currentTree | `-- pump@1.0.3
326 silly currentTree +-- tar-stream@1.6.2
326 silly currentTree | +-- isarray@1.0.0
326 silly currentTree | +-- readable-stream@2.3.6
326 silly currentTree | `-- string_decoder@1.1.1
326 silly currentTree +-- tar@4.4.10
326 silly currentTree +-- to-buffer@1.1.1
326 silly currentTree +-- toidentifier@1.0.0
326 silly currentTree +-- tunnel-agent@0.6.0
326 silly currentTree +-- type-is@1.6.18
326 silly currentTree +-- typedarray@0.0.6
326 silly currentTree +-- unpipe@1.0.0
326 silly currentTree +-- util-deprecate@1.0.2
326 silly currentTree +-- utils-merge@1.0.1
326 silly currentTree +-- vary@1.1.2
326 silly currentTree +-- which-pm-runs@1.0.0
326 silly currentTree +-- wide-align@1.1.3
326 silly currentTree +-- wrappy@1.0.2
326 silly currentTree +-- xtend@4.0.2
326 silly currentTree `-- yallist@3.0.3
327 silly idealTree node-test@1.0.0
327 silly idealTree +-- accepts@1.3.7
327 silly idealTree +-- ansi-regex@2.1.1
327 silly idealTree +-- append-field@1.0.0
327 silly idealTree +-- aproba@1.2.0
327 silly idealTree +-- are-we-there-yet@1.1.5
327 silly idealTree | +-- isarray@1.0.0
327 silly idealTree | +-- readable-stream@2.3.6
327 silly idealTree | `-- string_decoder@1.1.1
327 silly idealTree +-- array-flatten@1.1.1
327 silly idealTree +-- bl@1.2.2
327 silly idealTree | +-- isarray@1.0.0
327 silly idealTree | +-- readable-stream@2.3.6
327 silly idealTree | `-- string_decoder@1.1.1
327 silly idealTree +-- body-parser@1.19.0
327 silly idealTree +-- buffer-alloc-unsafe@1.1.0
327 silly idealTree +-- buffer-alloc@1.2.0
327 silly idealTree +-- buffer-fill@1.0.0
327 silly idealTree +-- buffer-from@1.1.1
327 silly idealTree +-- busboy@0.2.14
327 silly idealTree +-- bytes@3.1.0
327 silly idealTree +-- chownr@1.1.2
327 silly idealTree +-- code-point-at@1.1.0
327 silly idealTree +-- color-convert@1.9.3
327 silly idealTree +-- color-name@1.1.3
327 silly idealTree +-- color-string@1.5.3
327 silly idealTree +-- color@3.1.2
327 silly idealTree +-- concat-stream@1.6.2
327 silly idealTree | +-- isarray@1.0.0
327 silly idealTree | +-- readable-stream@2.3.6
327 silly idealTree | `-- string_decoder@1.1.1
327 silly idealTree +-- console-control-strings@1.1.0
327 silly idealTree +-- content-disposition@0.5.3
327 silly idealTree +-- content-type@1.0.4
327 silly idealTree +-- cookie-signature@1.0.6
327 silly idealTree +-- cookie@0.4.0
327 silly idealTree +-- core-util-is@1.0.2
327 silly idealTree +-- debug@2.6.9
327 silly idealTree +-- decompress-response@3.3.0
327 silly idealTree +-- deep-extend@0.6.0
327 silly idealTree +-- delegates@1.0.0
327 silly idealTree +-- depd@1.1.2
327 silly idealTree +-- destroy@1.0.4
327 silly idealTree +-- detect-libc@1.0.3
327 silly idealTree +-- dicer@0.2.5
327 silly idealTree +-- ee-first@1.1.1
327 silly idealTree +-- ejs@2.6.2
327 silly idealTree +-- encodeurl@1.0.2
327 silly idealTree +-- end-of-stream@1.4.1
327 silly idealTree +-- escape-html@1.0.3
327 silly idealTree +-- etag@1.8.1
327 silly idealTree +-- expand-template@2.0.3
327 silly idealTree +-- express@4.17.1
327 silly idealTree +-- finalhandler@1.1.2
327 silly idealTree +-- forwarded@0.1.2
327 silly idealTree +-- fresh@0.5.2
327 silly idealTree +-- fs-constants@1.0.0
327 silly idealTree +-- fs-copy-file-sync@1.1.1
327 silly idealTree +-- fs-minipass@1.2.6
327 silly idealTree +-- gauge@2.7.4
327 silly idealTree +-- github-from-package@0.0.0
327 silly idealTree +-- has-unicode@2.0.1
327 silly idealTree +-- http-errors@1.7.2
327 silly idealTree +-- iconv-lite@0.4.24
327 silly idealTree +-- inherits@2.0.3
327 silly idealTree +-- ini@1.3.5
327 silly idealTree +-- ipaddr.js@1.9.0
327 silly idealTree +-- is-arrayish@0.3.2
327 silly idealTree +-- is-fullwidth-code-point@1.0.0
327 silly idealTree +-- isarray@0.0.1
327 silly idealTree +-- media-typer@0.3.0
327 silly idealTree +-- merge-descriptors@1.0.1
327 silly idealTree +-- methods@1.1.2
327 silly idealTree +-- mime-db@1.40.0
327 silly idealTree +-- mime-types@2.1.24
327 silly idealTree +-- mime@1.6.0
327 silly idealTree +-- mimic-response@1.0.1
327 silly idealTree +-- minimist@0.0.8
327 silly idealTree +-- minipass@2.3.5
327 silly idealTree +-- minizlib@1.2.1
327 silly idealTree +-- mkdirp@0.5.1
327 silly idealTree +-- ms@2.0.0
327 silly idealTree +-- multer@1.4.2
327 silly idealTree +-- nan@2.14.0
327 silly idealTree +-- napi-build-utils@1.0.1
327 silly idealTree +-- negotiator@0.6.2
327 silly idealTree +-- node-abi@2.9.0
327 silly idealTree | `-- semver@5.7.0
327 silly idealTree +-- noop-logger@0.1.1
327 silly idealTree +-- npmlog@4.1.2
327 silly idealTree +-- number-is-nan@1.0.1
327 silly idealTree +-- object-assign@4.1.1
327 silly idealTree +-- on-finished@2.3.0
327 silly idealTree +-- once@1.4.0
327 silly idealTree +-- os-homedir@1.0.2
327 silly idealTree +-- parseurl@1.3.3
327 silly idealTree +-- path-to-regexp@0.1.7
327 silly idealTree +-- prebuild-install@5.3.0
327 silly idealTree | +-- minimist@1.2.0
327 silly idealTree | `-- simple-get@2.8.1
327 silly idealTree +-- process-nextick-args@2.0.1
327 silly idealTree +-- proxy-addr@2.0.5
327 silly idealTree +-- pump@2.0.1
327 silly idealTree +-- qs@6.7.0
327 silly idealTree +-- range-parser@1.2.1
327 silly idealTree +-- raw-body@2.4.0
327 silly idealTree +-- rc@1.2.8
327 silly idealTree | `-- minimist@1.2.0
327 silly idealTree +-- readable-stream@1.1.14
327 silly idealTree +-- safe-buffer@5.1.2
327 silly idealTree +-- safer-buffer@2.1.2
327 silly idealTree +-- semver@6.2.0
327 silly idealTree +-- send@0.17.1
327 silly idealTree | `-- ms@2.1.1
327 silly idealTree +-- serve-static@1.14.1
327 silly idealTree +-- set-blocking@2.0.0
327 silly idealTree +-- setprototypeof@1.1.1
327 silly idealTree +-- sharp@0.22.1
327 silly idealTree +-- signal-exit@3.0.2
327 silly idealTree +-- simple-concat@1.0.0
327 silly idealTree +-- simple-get@3.0.3
327 silly idealTree +-- simple-swizzle@0.2.2
327 silly idealTree +-- statuses@1.5.0
327 silly idealTree +-- streamsearch@0.1.2
327 silly idealTree +-- string_decoder@0.10.31
327 silly idealTree +-- string-width@1.0.2
327 silly idealTree +-- strip-ansi@3.0.1
327 silly idealTree +-- strip-json-comments@2.0.1
327 silly idealTree +-- tar-fs@1.16.3
327 silly idealTree | `-- pump@1.0.3
327 silly idealTree +-- tar-stream@1.6.2
327 silly idealTree | +-- isarray@1.0.0
327 silly idealTree | +-- readable-stream@2.3.6
327 silly idealTree | `-- string_decoder@1.1.1
327 silly idealTree +-- tar@4.4.10
327 silly idealTree +-- to-buffer@1.1.1
327 silly idealTree +-- toidentifier@1.0.0
327 silly idealTree +-- tunnel-agent@0.6.0
327 silly idealTree +-- type-is@1.6.18
327 silly idealTree +-- typedarray@0.0.6
327 silly idealTree +-- unpipe@1.0.0
327 silly idealTree +-- util-deprecate@1.0.2
327 silly idealTree +-- utils-merge@1.0.1
327 silly idealTree +-- vary@1.1.2
327 silly idealTree +-- which-pm-runs@1.0.0
327 silly idealTree +-- wide-align@1.1.3
327 silly idealTree +-- wrappy@1.0.2
327 silly idealTree +-- xtend@4.0.2
327 silly idealTree `-- yallist@3.0.3
328 silly install generateActionsToTake
329 timing stage:generateActionsToTake Completed in 36ms
330 silly diffTrees action count 1
331 silly diffTrees update sharp@0.22.1
332 silly decomposeActions action count 10
333 silly decomposeActions unbuild sharp@0.22.1
334 silly decomposeActions remove sharp@0.22.1
335 silly decomposeActions fetch sharp@0.22.1
336 silly decomposeActions extract sharp@0.22.1
337 silly decomposeActions preinstall sharp@0.22.1
338 silly decomposeActions build sharp@0.22.1
339 silly decomposeActions install sharp@0.22.1
340 silly decomposeActions postinstall sharp@0.22.1
341 silly decomposeActions finalize sharp@0.22.1
342 silly decomposeActions refresh-package-json sharp@0.22.1
343 silly install executeActions
344 silly doSerial global-install 10
345 verbose correctMkdir E:\squareapp\~1\_locks correctMkdir not in flight; initializing
346 verbose makeDirectory E:\squareapp\~1\_locks creation not in flight; initializing
347 verbose makeCacheDir UID & GID are irrelevant on win32
348 verbose lock using E:\squareapp\~1\_locks\staging-c0d06b674399664a.lock for E:\squareapp\node_modules\.staging
349 silly doParallel extract 1
350 silly extract sharp@0.22.1
351 silly tarball trying sharp@^0.22.1 by hash: sha512-lXzSk/FL5b/MpWrT1pQZneKe25stVjEbl6uhhJcTULm7PhmJgKKRbTDM/vtjyUuC/RLqL2PRyC4rpKwbv3soEw==
352 silly tarball no local data for sharp@^0.22.1. Extracting by manifest.
353 http fetch GET 200 https://registry.npmjs.org/sharp/-/sharp-0.22.1.tgz 387ms
354 silly extract sharp@^0.22.1 extracted to E:\squareapp\node_modules\.staging\sharp-addc4cc4 (416ms)
355 timing action:extract Completed in 422ms
356 silly doReverseSerial unbuild 10
357 silly unbuild sharp@0.22.1
358 info lifecycle sharp@0.22.1~preuninstall: sharp@0.22.1
359 info lifecycle sharp@0.22.1~uninstall: sharp@0.22.1
360 verbose unbuild rmStuff sharp@0.22.1 from E:\squareapp\node_modules
361 info lifecycle sharp@0.22.1~postuninstall: sharp@0.22.1
362 timing action:unbuild Completed in 19ms
363 silly doSerial remove 10
364 silly remove E:\squareapp\node_modules\sharp
365 timing action:remove Completed in 60ms
366 silly doSerial move 10
367 silly doSerial finalize 10
368 silly finalize E:\squareapp\node_modules\sharp
369 timing action:finalize Completed in 5ms
370 silly doParallel refresh-package-json 1
371 silly refresh-package-json E:\squareapp\node_modules\sharp
372 timing action:refresh-package-json Completed in 53ms
373 silly doParallel preinstall 1
374 silly preinstall sharp@0.22.1
375 info lifecycle sharp@0.22.1~preinstall: sharp@0.22.1
376 timing action:preinstall Completed in 3ms
377 silly doSerial build 10
378 silly build sharp@0.22.1
379 info linkStuff sharp@0.22.1
380 silly linkStuff sharp@0.22.1 has E:\squareapp\node_modules as its parent node_modules
381 timing action:build Completed in 4ms
382 silly doSerial global-link 10
383 silly doParallel update-linked 0
384 silly doSerial install 10
385 silly install sharp@0.22.1
386 info lifecycle sharp@0.22.1~install: sharp@0.22.1
387 verbose lifecycle sharp@0.22.1~install: unsafe-perm in lifecycle true
388 verbose lifecycle sharp@0.22.1~install: PATH: C:\Program Files\nodejs\node_modules\npm\node_modules\npm-lifecycle\node-gyp-bin;E:\squareapp\node_modules\sharp\node_modules\.bin;E:\squareapp\node_modules\.bin;C:\Users\JR AJ\bin;C:\Program Files\Git\mingw64\bin;C:\Program Files\Git\usr\local\bin;C:\Program Files\Git\usr\bin;C:\Program Files\Git\usr\bin;C:\Program Files\Git\mingw64\bin;C:\Program Files\Git\usr\bin;C:\Users\JR AJ\bin;C:\Program Files (x86)\Common Files\Oracle\Java\javapath;C:\Program Files (x86)\Intel\Intel(R) Management Engine Components\iCLS;C:\Program Files\Intel\Intel(R) Management Engine Components\iCLS;C:\Windows\system32;C:\Windows;C:\Windows\System32\Wbem;C:\Windows\System32\WindowsPowerShell\v1.0;C:\Windows\System32\OpenSSH;C:\Program Files (x86)\NVIDIA Corporation\PhysX\Common;C:\Program Files (x86)\Intel\Intel(R) Management Engine Components\DAL;C:\Program Files\Intel\Intel(R) Management Engine Components\DAL;C:\Program Files (x86)\Intel\Intel(R) Management Engine Components\IPT;C:\Program Files\Intel\Intel(R) Management Engine Components\IPT;C:\WINDOWS\system32;C:\WINDOWS;C:\WINDOWS\System32\Wbem;C:\WINDOWS\System32\WindowsPowerShell\v1.0;C:\WINDOWS\System32\OpenSSH;C:\Program Files\NVIDIA Corporation\NVIDIA NvDLISR;C:\Program Files\Git\cmd;C:\Program Files (x86)\Calibre2;C:\Program Files\nodejs;C:\Users\JR AJ\AppData\Local\Microsoft\WindowsApps;C:\Users\JR AJ\AppData\Roaming\npm;C:\Program Files\Git\usr\bin\vendor_perl;C:\Program Files\Git\usr\bin\core_perl
389 verbose lifecycle sharp@0.22.1~install: CWD: E:\squareapp\node_modules\sharp
390 silly lifecycle sharp@0.22.1~install: Args: [ '/d /s /c',
390 silly lifecycle   '(node install/libvips && node install/dll-copy && prebuild-install) || (node-gyp rebuild && node install/dll-copy)' ]
391 timing audit submit Completed in 1163ms
392 http fetch POST 200 https://registry.npmjs.org/-/npm/v1/security/audits/quick 1162ms
393 timing audit body Completed in 0ms
394 silly lifecycle sharp@0.22.1~install: Returned: code: 1  signal: null
395 info lifecycle sharp@0.22.1~install: Failed to exec install script
396 timing action:install Completed in 19673ms
397 verbose unlock done using E:\squareapp\~1\_locks\staging-c0d06b674399664a.lock for E:\squareapp\node_modules\.staging
398 timing stage:rollbackFailedOptional Completed in 263ms
399 timing stage:runTopLevelLifecycles Completed in 50205ms
400 silly saveTree node-test@1.0.0
400 silly saveTree +-- body-parser@1.19.0
400 silly saveTree | +-- bytes@3.1.0
400 silly saveTree | +-- content-type@1.0.4
400 silly saveTree | +-- debug@2.6.9
400 silly saveTree | | `-- ms@2.0.0
400 silly saveTree | +-- depd@1.1.2
400 silly saveTree | +-- http-errors@1.7.2
400 silly saveTree | | +-- inherits@2.0.3
400 silly saveTree | | +-- setprototypeof@1.1.1
400 silly saveTree | | +-- statuses@1.5.0
400 silly saveTree | | `-- toidentifier@1.0.0
400 silly saveTree | +-- iconv-lite@0.4.24
400 silly saveTree | | `-- safer-buffer@2.1.2
400 silly saveTree | +-- on-finished@2.3.0
400 silly saveTree | | `-- ee-first@1.1.1
400 silly saveTree | +-- qs@6.7.0
400 silly saveTree | +-- raw-body@2.4.0
400 silly saveTree | | `-- unpipe@1.0.0
400 silly saveTree | `-- type-is@1.6.18
400 silly saveTree |   +-- media-typer@0.3.0
400 silly saveTree |   `-- mime-types@2.1.24
400 silly saveTree |     `-- mime-db@1.40.0
400 silly saveTree +-- ejs@2.6.2
400 silly saveTree +-- express@4.17.1
400 silly saveTree | +-- accepts@1.3.7
400 silly saveTree | | `-- negotiator@0.6.2
400 silly saveTree | +-- array-flatten@1.1.1
400 silly saveTree | +-- content-disposition@0.5.3
400 silly saveTree | | `-- safe-buffer@5.1.2
400 silly saveTree | +-- cookie-signature@1.0.6
400 silly saveTree | +-- cookie@0.4.0
400 silly saveTree | +-- encodeurl@1.0.2
400 silly saveTree | +-- escape-html@1.0.3
400 silly saveTree | +-- etag@1.8.1
400 silly saveTree | +-- finalhandler@1.1.2
400 silly saveTree | | `-- parseurl@1.3.3
400 silly saveTree | +-- fresh@0.5.2
400 silly saveTree | +-- merge-descriptors@1.0.1
400 silly saveTree | +-- methods@1.1.2
400 silly saveTree | +-- parseurl@1.3.3
400 silly saveTree | +-- path-to-regexp@0.1.7
400 silly saveTree | +-- proxy-addr@2.0.5
400 silly saveTree | | +-- forwarded@0.1.2
400 silly saveTree | | `-- ipaddr.js@1.9.0
400 silly saveTree | +-- range-parser@1.2.1
400 silly saveTree | +-- safe-buffer@5.1.2
400 silly saveTree | +-- send@0.17.1
400 silly saveTree | | +-- destroy@1.0.4
400 silly saveTree | | +-- mime@1.6.0
400 silly saveTree | | `-- ms@2.1.1
400 silly saveTree | +-- serve-static@1.14.1
400 silly saveTree | +-- utils-merge@1.0.1
400 silly saveTree | `-- vary@1.1.2
400 silly saveTree +-- multer@1.4.2
400 silly saveTree | +-- append-field@1.0.0
400 silly saveTree | +-- busboy@0.2.14
400 silly saveTree | | +-- dicer@0.2.5
400 silly saveTree | | | +-- readable-stream@1.1.14
400 silly saveTree | | | | +-- core-util-is@1.0.2
400 silly saveTree | | | | +-- isarray@0.0.1
400 silly saveTree | | | | `-- string_decoder@0.10.31
400 silly saveTree | | | `-- streamsearch@0.1.2
400 silly saveTree | | `-- readable-stream@1.1.14
400 silly saveTree | +-- concat-stream@1.6.2
400 silly saveTree | | +-- buffer-from@1.1.1
400 silly saveTree | | +-- readable-stream@2.3.6
400 silly saveTree | | | +-- isarray@1.0.0
400 silly saveTree | | | +-- process-nextick-args@2.0.1
400 silly saveTree | | | +-- string_decoder@1.1.1
400 silly saveTree | | | `-- util-deprecate@1.0.2
400 silly saveTree | | `-- typedarray@0.0.6
400 silly saveTree | +-- mkdirp@0.5.1
400 silly saveTree | | `-- minimist@0.0.8
400 silly saveTree | +-- object-assign@4.1.1
400 silly saveTree | `-- xtend@4.0.2
400 silly saveTree `-- sharp@0.22.1
400 silly saveTree   +-- color@3.1.2
400 silly saveTree   | +-- color-convert@1.9.3
400 silly saveTree   | | `-- color-name@1.1.3
400 silly saveTree   | `-- color-string@1.5.3
400 silly saveTree   |   `-- simple-swizzle@0.2.2
400 silly saveTree   |     `-- is-arrayish@0.3.2
400 silly saveTree   +-- detect-libc@1.0.3
400 silly saveTree   +-- fs-copy-file-sync@1.1.1
400 silly saveTree   +-- nan@2.14.0
400 silly saveTree   +-- npmlog@4.1.2
400 silly saveTree   | +-- are-we-there-yet@1.1.5
400 silly saveTree   | | +-- delegates@1.0.0
400 silly saveTree   | | `-- readable-stream@2.3.6
400 silly saveTree   | |   +-- isarray@1.0.0
400 silly saveTree   | |   `-- string_decoder@1.1.1
400 silly saveTree   | +-- console-control-strings@1.1.0
400 silly saveTree   | +-- gauge@2.7.4
400 silly saveTree   | | +-- aproba@1.2.0
400 silly saveTree   | | +-- has-unicode@2.0.1
400 silly saveTree   | | +-- signal-exit@3.0.2
400 silly saveTree   | | +-- string-width@1.0.2
400 silly saveTree   | | | +-- code-point-at@1.1.0
400 silly saveTree   | | | +-- is-fullwidth-code-point@1.0.0
400 silly saveTree   | | | | `-- number-is-nan@1.0.1
400 silly saveTree   | | | `-- strip-ansi@3.0.1
400 silly saveTree   | | |   `-- ansi-regex@2.1.1
400 silly saveTree   | | +-- strip-ansi@3.0.1
400 silly saveTree   | | `-- wide-align@1.1.3
400 silly saveTree   | `-- set-blocking@2.0.0
400 silly saveTree   +-- prebuild-install@5.3.0
400 silly saveTree   | +-- expand-template@2.0.3
400 silly saveTree   | +-- github-from-package@0.0.0
400 silly saveTree   | +-- minimist@1.2.0
400 silly saveTree   | +-- napi-build-utils@1.0.1
400 silly saveTree   | +-- node-abi@2.9.0
400 silly saveTree   | | `-- semver@5.7.0
400 silly saveTree   | +-- noop-logger@0.1.1
400 silly saveTree   | +-- os-homedir@1.0.2
400 silly saveTree   | +-- pump@2.0.1
400 silly saveTree   | | +-- end-of-stream@1.4.1
400 silly saveTree   | | | `-- once@1.4.0
400 silly saveTree   | | |   `-- wrappy@1.0.2
400 silly saveTree   | | `-- once@1.4.0
400 silly saveTree   | +-- rc@1.2.8
400 silly saveTree   | | +-- deep-extend@0.6.0
400 silly saveTree   | | +-- ini@1.3.5
400 silly saveTree   | | +-- minimist@1.2.0
400 silly saveTree   | | `-- strip-json-comments@2.0.1
400 silly saveTree   | +-- simple-get@2.8.1
400 silly saveTree   | | +-- decompress-response@3.3.0
400 silly saveTree   | | | `-- mimic-response@1.0.1
400 silly saveTree   | | `-- simple-concat@1.0.0
400 silly saveTree   | +-- tar-fs@1.16.3
400 silly saveTree   | | +-- chownr@1.1.2
400 silly saveTree   | | +-- pump@1.0.3
400 silly saveTree   | | `-- tar-stream@1.6.2
400 silly saveTree   | |   +-- bl@1.2.2
400 silly saveTree   | |   | `-- readable-stream@2.3.6
400 silly saveTree   | |   |   +-- isarray@1.0.0
400 silly saveTree   | |   |   `-- string_decoder@1.1.1
400 silly saveTree   | |   +-- buffer-alloc@1.2.0
400 silly saveTree   | |   | +-- buffer-alloc-unsafe@1.1.0
400 silly saveTree   | |   | `-- buffer-fill@1.0.0
400 silly saveTree   | |   +-- fs-constants@1.0.0
400 silly saveTree   | |   +-- readable-stream@2.3.6
400 silly saveTree   | |   | +-- isarray@1.0.0
400 silly saveTree   | |   | `-- string_decoder@1.1.1
400 silly saveTree   | |   `-- to-buffer@1.1.1
400 silly saveTree   | +-- tunnel-agent@0.6.0
400 silly saveTree   | `-- which-pm-runs@1.0.0
400 silly saveTree   +-- semver@6.2.0
400 silly saveTree   +-- simple-get@3.0.3
400 silly saveTree   +-- tar@4.4.10
400 silly saveTree   | +-- fs-minipass@1.2.6
400 silly saveTree   | | `-- minipass@2.3.5
400 silly saveTree   | |   `-- yallist@3.0.3
400 silly saveTree   | +-- minipass@2.3.5
400 silly saveTree   | +-- minizlib@1.2.1
400 silly saveTree   | `-- yallist@3.0.3
400 silly saveTree   `-- tunnel-agent@0.6.0
401 warn node-test@1.0.0 No description
402 warn node-test@1.0.0 No repository field.
403 verbose stack Error: sharp@0.22.1 install: `(node install/libvips && node install/dll-copy && prebuild-install) || (node-gyp rebuild && node install/dll-copy)`
403 verbose stack Exit status 1
403 verbose stack     at EventEmitter.<anonymous> (C:\Program Files\nodejs\node_modules\npm\node_modules\npm-lifecycle\index.js:301:16)
403 verbose stack     at EventEmitter.emit (events.js:198:13)
403 verbose stack     at ChildProcess.<anonymous> (C:\Program Files\nodejs\node_modules\npm\node_modules\npm-lifecycle\lib\spawn.js:55:14)
403 verbose stack     at ChildProcess.emit (events.js:198:13)
403 verbose stack     at maybeClose (internal/child_process.js:982:16)
403 verbose stack     at Process.ChildProcess._handle.onexit (internal/child_process.js:259:5)
404 verbose pkgid sharp@0.22.1
405 verbose cwd E:\squareapp
406 verbose Windows_NT 10.0.17763
407 verbose argv "C:\\Program Files\\nodejs\\node.exe" "C:\\Program Files\\nodejs\\node_modules\\npm\\bin\\npm-cli.js" "install" "sharp" "--save"
408 verbose node v10.16.0
409 verbose npm  v6.9.0
410 error code ELIFECYCLE
411 error errno 1
412 error sharp@0.22.1 install: `(node install/libvips && node install/dll-copy && prebuild-install) || (node-gyp rebuild && node install/dll-copy)`
412 error Exit status 1
413 error Failed at the sharp@0.22.1 install script.
413 error This is probably not a problem with npm. There is likely additional logging output above.
414 verbose exit [ 1, true ]
